…
`translate` toma todos los elementos en el vector, y nos arroja sus
equivalentes en inglés. Así pues, para transformar todos los 
valores en la columna `Descripción` a su equivalente en inglés he
decidido generar una nueva columna, utilizando mi función
`translate`. Esto es muy fácil utilizando `mutate`


```r
  (export.rows <- mutate(export.rows,
                         Activity = translate(`Descripción`)))
```

```
> # A tibble: 5,255 × 6
>    Código Descripción           state           year     USD Activity
>     <dbl> <chr>                 <chr>          <dbl>   <dbl> <chr>   
>  1     NA Exportaciones totales Aguascalientes  2007 4389841 Total   
>  2     NA Exportaciones totales Aguascalientes  2008 4456893 Total   
>  3     NA Exportaciones totales Aguascalientes  2009 3951108 Total   
>  4     NA Exportaciones totales Aguascalientes  2010 5647929 Total   
>  5     NA Exportaciones totales Aguascalientes  2011 6051640 Total   
>  6     NA Exportaciones totales Aguascalientes  2012 6183782 Total   
>  7     NA Exportaciones totales Aguascalientes  2013 6726207 Total   
>  8     NA Exportaciones totales Aguascalientes  2014 8466007 Total   
>  9     NA Exportaciones totales Aguascalientes  2015 8495445 Total   
> 10     NA Exportaciones totales Aguascalientes  2016 7870962 Total   
> # … with 5,245 more rows
```
…
